{
  "design_1": {
    "frequency_label": "per month",

    "basic": {
      "public_transport": [
        { "symbol": "option_1", "value": 1, "price": 32 },
        { "symbol": "option_2", "value": 2, "price": 50 }
      ],

      "bike_sharing": [
        { "symbol": "option_0", "value": 0 },
        { "symbol": "option_1", "value": 1, "price": 6 }
      ],

      "multipliers": [
        0.80, 0.85, 0.88, 0.95, 1.00, 1.05, 1.12, 1.15, 1.20
      ]
    },

    "urban": {
      "public_transport": [
        { "symbol": "option_2", "value": 2, "price": 50 }
      ],

      "bike_sharing": [
        { "symbol": "option_0", "value": 0 },
        { "symbol": "option_1", "value": 1, "price": 6 }
      ],

      "taxi": [
        { "symbol": "option_1", "value": 1, "price": 11 },
        { "symbol": "option_2", "value": 2, "price": 22 },
        { "symbol": "option_3", "value": 3, "price": 33 }
      ],

      "multipliers": [
        0.80, 0.85, 0.88, 0.95, 1.00, 1.05, 1.12, 1.15, 1.20
      ]
    },

    "extra": {
      "public_transport": [
        { "symbol": "option_2", "value": 2, "price": 50 }
      ],

      "bike_sharing": [
        { "symbol": "option_1", "value": 1, "price": 6 }
      ],

      "taxi": [
        { "symbol": "option_0", "value": 0 },
        { "symbol": "option_3", "value": 3, "price": 33 },
        { "symbol": "option_3", "value": 4, "price": 44 },
        { "symbol": "option_8", "value": 8, "price": 88 },
        { "symbol": "option_10", "value": 10, "price": 110 }
      ],

      "car_sharing": [
        { "symbol": "option_0", "value": 0 },
        { "symbol": "option_1", "value": 1, "price": 14 },
        { "symbol": "option_3", "value": 3, "price": 19 },
        { "symbol": "option_5", "value": 5, "price": 24 },
        { "symbol": "option_8", "value": 8, "price": 32 },
        { "symbol": "option_12", "value": 12, "price": 37 }
      ],

      "multipliers": [
        0.80, 0.85, 0.88, 0.95, 1.00, 1.05, 1.12, 1.15, 1.20
      ]
    },

    "carrots": {
      "deals": [
        { "symbol": "option_1", "value": 1 },
        { "symbol": "option_2", "value": 2 },
        { "symbol": "option_3", "value": 3 }
      ],

      "durations": [
        { "symbol": "option_0", "value": 0 },
        { "symbol": "option_1", "value": 1 },
        { "symbol": "option_2", "value": 2 },
        { "symbol": "option_3", "value": 3 },
        { "symbol": "option_4", "value": 4 },
        { "symbol": "option_5", "value": 5 }
      ]
    },

    "sticks": [
      { "symbol": "option_1", "value": 1 },
      { "symbol": "option_2", "value": 2 },
      { "symbol": "option_3", "value": 3 },
      { "symbol": "option_4", "value": 4 },
      { "symbol": "option_5", "value": 5 }
    ]
  },

  "flexible": {
    "public_transport": [
      { "symbol": "option_0", "value": 0 },
      { "symbol": "option_1", "value": 1, "price": 32 },
      { "symbol": "option_2", "value": 2, "price": 50 }
    ],

    "bike_sharing": [
      { "symbol": "option_0", "value": 0 },
      { "symbol": "option_1", "value": 1, "price": 6 }
    ],

    "taxi": [
      { "symbol": "option_0", "value": 0 },
      { "symbol": "option_1", "value": 1, "price": 11 },
      { "symbol": "option_2", "value": 2, "price": 22 },
      { "symbol": "option_3", "value": 3, "price": 33 },
      { "symbol": "option_4", "value": 4, "price": 44 },
      { "symbol": "option_8", "value": 8, "price": 88 },
      { "symbol": "option_10", "value": 10, "price": 110 }
    ],

    "car_sharing": [
      { "symbol": "option_0", "value": 0 },
      { "symbol": "option_1", "value": 1, "price": 14 },
      { "symbol": "option_2", "value": 2, "price": 19 },
      { "symbol": "option_3", "value": 3, "price": 24 },
      { "symbol": "option_8", "value": 8, "price": 32 },
      { "symbol": "option_12", "value": 12, "price": 37 }
    ]
  },

  "design_4": {
    "payg": {
      "public_transport": [
        { "symbol": "option_1", "value": 1, "price": 0 }
      ],

      "bike_sharing": [
        { "symbol": "option_3", "value": 0.15 },
        { "symbol": "option_4", "value": 0.30 },
        { "symbol": "option_5", "value": 0.40 },
        { "symbol": "option_6", "value": 0.50 }
      ],

      "taxi": [
        { "symbol": "option_4", "value": 10 },
        { "symbol": "option_5", "value": 13 },
        { "symbol": "option_6", "value": 15 }
      ],

      "car_sharing": [
        { "symbol": "option_3", "value": 11 },
        { "symbol": "option_4", "value": 12 },
        { "symbol": "option_5", "value": 13 },
        { "symbol": "option_6", "value": 14 }
      ],

      "plan_fee": [
        { "symbol": "option_1", "value": 0 },
        { "symbol": "option_2", "value": 5 },
        { "symbol": "option_3", "value": 10 },
        { "symbol": "option_4", "value": 18 },
        { "symbol": "option_5", "value": 20 }
      ],

      "contract_level": [
        { "symbol": "option_1", "value": 1 }
      ]

    },

    "weekly": {
      "public_transport": [
        { "symbol": "option_2", "value": 2, "price": 12 },
        { "symbol": "option_3", "value": 3, "price": 28 }
      ],

      "bike_sharing": [
        { "symbol": "option_2", "value": 0.10 },
        { "symbol": "option_3", "value": 0.15 },
        { "symbol": "option_4", "value": 0.30 },
        { "symbol": "option_5", "value": 0.40 }
      ],

      "taxi": [
        { "symbol": "option_2", "value": 7 },
        { "symbol": "option_3", "value": 8 },
        { "symbol": "option_4", "value": 10 },
        { "symbol": "option_5", "value": 13 }
      ],

      "car_sharing": [
        { "symbol": "option_2", "value": 9 },
        { "symbol": "option_3", "value": 11 },
        { "symbol": "option_4", "value": 12 },
        { "symbol": "option_5", "value": 13 }
      ],

      "plan_fee": [
        { "symbol": "multiplier", "value": 1, "multiplier": 0.80 },
        { "symbol": "multiplier", "value": 2, "multiplier": 0.85 },
        { "symbol": "multiplier", "value": 3, "multiplier": 0.88 },
        { "symbol": "multiplier", "value": 4, "multiplier": 0.95 },
        { "symbol": "multiplier", "value": 5, "multiplier": 1.00 },
        { "symbol": "multiplier", "value": 6, "multiplier": 1.05 },
        { "symbol": "multiplier", "value": 7, "multiplier": 1.12 },
        { "symbol": "multiplier", "value": 8, "multiplier": 1.15 },
        { "symbol": "multiplier", "value": 9, "multiplier": 1.20 }
      ],

      "contract_level": [
        { "symbol": "option_2", "value": 1 },
        { "symbol": "option_3", "value": 2 },
        { "symbol": "option_4", "value": 3 }
      ]
    },

    "monthly": {
      "public_transport": [
        { "symbol": "option_4", "value": 4, "price": 32 },
        { "symbol": "option_5", "value": 5, "price": 50 }
      ],

      "bike_sharing": [
        { "symbol": "option_1", "value": 0.05 },
        { "symbol": "option_2", "value": 0.10 },
        { "symbol": "option_3", "value": 0.15 },
        { "symbol": "option_4", "value": 0.30 }
      ],

      "taxi": [
        { "symbol": "option_1", "value": 5 },
        { "symbol": "option_2", "value": 7 },
        { "symbol": "option_3", "value": 8 },
        { "symbol": "option_4", "value": 10 }
      ],

      "car_sharing": [
        { "symbol": "option_1", "value": 8 },
        { "symbol": "option_2", "value": 9 },
        { "symbol": "option_3", "value": 11 },
        { "symbol": "option_4", "value": 12 }
      ],

      "plan_fee": [
        { "symbol": "multiplier", "value": 1, "multiplier": 0.80 },
        { "symbol": "multiplier", "value": 2, "multiplier": 0.85 },
        { "symbol": "multiplier", "value": 3, "multiplier": 0.88 },
        { "symbol": "multiplier", "value": 4, "multiplier": 0.95 },
        { "symbol": "multiplier", "value": 5, "multiplier": 1.00 },
        { "symbol": "multiplier", "value": 6, "multiplier": 1.05 },
        { "symbol": "multiplier", "value": 7, "multiplier": 1.12 },
        { "symbol": "multiplier", "value": 8, "multiplier": 1.15 },
        { "symbol": "multiplier", "value": 9, "multiplier": 1.20 }
      ],

      "contract_level": [
        { "symbol": "option_5", "value": 1 },
        { "symbol": "option_3", "value": 2 },
        { "symbol": "option_6", "value": 3 },
        { "symbol": "option_7", "value": 4 }
      ]
    }
  }
}