{
  "design_1": {
    "frequency_label": "for 24 hours",

    "basic": {
      "public_transport": [
        { "symbol": "option_1", "value": 1, "price": 9.5 }
      ],

      "bike_sharing": [
        { "symbol": "option_0", "value": 0 },
        { "symbol": "option_1", "value": 1, "price": 1 }
      ],

      "manchester_card": [
        { "symbol": "option_0", "value": 0 },
        { "symbol": "option_1", "value": 1, "price": 20 }
      ],

      "multipliers": [
        0.8, 0.85, 0.88, 0.95, 1, 1.05, 1.12, 1.15, 1.2, 1.25, 1.3
      ],

      "frequency_label": "for 24 hours"
    },

    "easy": {
      "public_transport": [
        { "symbol": "option_1", "value": 1, "price": 9.5 }
      ],

      "bike_sharing": [
        { "symbol": "option_1", "value": 1, "price": 1 }
      ],

      "taxi": [
        { "symbol": "option_0", "value": 0 },
        { "symbol": "option_t_1", "value": 1, "price": 8 },
        { "symbol": "option_t_2", "value": 2, "price": 16 },
        { "symbol": "option_t_3", "value": 3, "price": 24 }
      ],

      "airport_transfer": [
        { "symbol": "option_0", "value": 0 },
        { "symbol": "option_1", "value": 1, "price": 8 },
        { "symbol": "option_2", "value": 2, "price": 40 }
      ],

      "hotel_transfer": [
        { "symbol": "option_0", "value": 0 },
        { "symbol": "option_1", "value": 1, "price": 4 },
        { "symbol": "option_2", "value": 2, "price": 16 }
      ],

      "manchester_card": [
        { "symbol": "option_0", "value": 0 },
        { "symbol": "option_1", "value": 1, "price": 20 }
      ],

      "multipliers": [
        0.8, 0.85, 0.88, 0.95, 1, 1.05, 1.12, 1.15, 1.2, 1.25, 1.3
      ],

      "frequency_label": "for 24 hours"
    },

    "roamer": {
      "public_transport": [
        { "symbol": "option_1", "value": 1, "price": 9.5 }
      ],

      "bike_sharing": [
        { "symbol": "option_1", "value": 1, "price": 1 }
      ],

      "taxi": [
        { "symbol": "option_0", "value": 0 },
        { "symbol": "option_t_1", "value": 1, "price": 8 },
        { "symbol": "option_t_2", "value": 2, "price": 16 }
      ],

      "car_sharing": [
        { "symbol": "option_0", "value": 0 },
        { "symbol": "option_1", "value": 1, "price": 13 },
        { "symbol": "option_2", "value": 3, "price": 23 }
      ],

      "airport_transfer": [
        { "symbol": "option_0", "value": 0 },
        { "symbol": "option_1", "value": 1, "price": 8 },
        { "symbol": "option_2", "value": 2, "price": 40 }
      ],

      "hotel_transfer": [
        { "symbol": "option_0", "value": 0 },
        { "symbol": "option_1", "value": 1, "price": 4 },
        { "symbol": "option_2", "value": 2, "price": 16 }
      ],

      "manchester_card": [
        { "symbol": "option_0", "value": 0 },
        { "symbol": "option_1", "value": 1, "price": 20 }
      ],

      "multipliers": [
        0.8, 0.85, 0.88, 0.95, 1, 1.05, 1.12, 1.15, 1.2, 1.25, 1.3
      ],

      "frequency_label": "for 24 hours"
    }
  },

  "design_2": {
    "frequency_label": "for 72 hours",

    "basic": {
      "public_transport": [
        { "symbol": "option_1", "value": 1, "price": 28.5 }
      ],

      "bike_sharing": [
        { "symbol": "option_0", "value": 0 },
        { "symbol": "option_1", "value": 1, "price": 5 }
      ],

      "manchester_card": [
        { "symbol": "option_0", "value": 0 },
        { "symbol": "option_2", "value": 1, "price": 30 }
      ],

      "multipliers": [
        0.8, 0.85, 0.88, 0.95, 1, 1.05, 1.12, 1.15, 1.2, 1.25, 1.3
      ],

      "frequency_label": "for 72 hours"
    },

    "easy": {
      "public_transport": [
        { "symbol": "option_1", "value": 1, "price": 28.5 }
      ],

      "bike_sharing": [
        { "symbol": "option_1", "value": 1, "price": 5 }
      ],

      "taxi": [
        { "symbol": "option_0", "value": 0 },
        { "symbol": "option_t_1", "value": 1, "price": 8 },
        { "symbol": "option_t_2", "value": 2, "price": 16 }
      ],

      "airport_transfer": [
        { "symbol": "option_0", "value": 0 },
        { "symbol": "option_1", "value": 1, "price": 8 },
        { "symbol": "option_2", "value": 2, "price": 40 }
      ],

      "hotel_transfer": [
        { "symbol": "option_0", "value": 0 },
        { "symbol": "option_1", "value": 1, "price": 4 },
        { "symbol": "option_2", "value": 2, "price": 16 }
      ],

      "manchester_card": [
        { "symbol": "option_0", "value": 0 },
        { "symbol": "option_2", "value": 1, "price": 30 }
      ],

      "multipliers": [
        0.8, 0.85, 0.88, 0.95, 1, 1.05, 1.12, 1.15, 1.2, 1.25, 1.3
      ],

      "frequency_label": "for 72 hours"
    },

    "roamer": {
      "public_transport": [
        { "symbol": "option_1", "value": 1, "price": 28.5 }
      ],

      "bike_sharing": [
        { "symbol": "option_1", "value": 1, "price": 5 }
      ],

      "taxi": [
        { "symbol": "option_0", "value": 0 },
        { "symbol": "option_t_1", "value": 1, "price": 8 },
        { "symbol": "option_t_2", "value": 2, "price": 16 },
        { "symbol": "option_t_3", "value": 3, "price": 24 }
      ],

      "car_sharing": [
        { "symbol": "option_0", "value": 0 },
        { "symbol": "option_1", "value": 1, "price": 13 },
        { "symbol": "option_3", "value": 3, "price": 23 },
        { "symbol": "option_3", "value": 5, "price": 33 },
        { "symbol": "option_8", "value": 8, "price": 48 }
      ],

      "airport_transfer": [
        { "symbol": "option_0", "value": 0 },
        { "symbol": "option_1", "value": 1, "price": 8 },
        { "symbol": "option_2", "value": 2, "price": 40 }
      ],

      "hotel_transfer": [
        { "symbol": "option_0", "value": 0 },
        { "symbol": "option_1", "value": 1, "price": 4 },
        { "symbol": "option_2", "value": 2, "price": 16 }
      ],

      "manchester_card": [
        { "symbol": "option_0", "value": 0 },
        { "symbol": "option_2", "value": 1, "price": 30 }
      ],

      "multipliers": [
        0.8, 0.85, 0.88, 0.95, 1, 1.05, 1.12, 1.15, 1.2, 1.25, 1.3
      ],

      "frequency_label": "for 72 hours"
    }
  },

  "design_3": {
    "frequency_label": "for a week",

    "basic": {
      "public_transport": [
        { "symbol": "option_1", "value": 1, "price": 48.5 }
      ],

      "bike_sharing": [
        { "symbol": "option_0", "value": 0 },
        { "symbol": "option_1", "value": 1, "price": 5 }
      ],

      "manchester_card": [
        { "symbol": "option_0", "value": 0 },
        { "symbol": "option_2", "value": 1, "price": 30 }
      ],

      "multipliers": [
        0.8, 0.85, 0.88, 0.95, 1, 1.05, 1.12, 1.15, 1.2, 1.25, 1.3
      ],

      "frequency_label": "for a week"
    },

    "easy": {
      "public_transport": [
        { "symbol": "option_1", "value": 1, "price": 48.5 }
      ],

      "bike_sharing": [
        { "symbol": "option_1", "value": 1, "price": 5 }
      ],

      "taxi": [
        { "symbol": "option_0", "value": 0 },
        { "symbol": "option_t_1", "value": 1, "price": 8 },
        { "symbol": "option_t_2", "value": 2, "price": 16 },
        { "symbol": "option_t_4", "value": 4, "price": 24 }
      ],

      "airport_transfer": [
        { "symbol": "option_0", "value": 0 },
        { "symbol": "option_1", "value": 1, "price": 8 },
        { "symbol": "option_2", "value": 2, "price": 40 }
      ],

      "hotel_transfer": [
        { "symbol": "option_0", "value": 0 },
        { "symbol": "option_1", "value": 1, "price": 4 },
        { "symbol": "option_2", "value": 2, "price": 16 }
      ],

      "manchester_card": [
        { "symbol": "option_0", "value": 0 },
        { "symbol": "option_2", "value": 1, "price": 30 },
        { "symbol": "option_3", "value": 2, "price": 50 }
      ],

      "multipliers": [
        0.8, 0.85, 0.88, 0.95, 1, 1.05, 1.12, 1.15, 1.2, 1.25, 1.3
      ],

      "frequency_label": "for a week"
    },

    "roamer": {
      "public_transport": [
        { "symbol": "option_1", "value": 1, "price": 48.5 }
      ],

      "bike_sharing": [
        { "symbol": "option_1", "value": 1, "price": 5 }
      ],

      "taxi": [
        { "symbol": "option_0", "value": 0 },
        { "symbol": "option_t_2", "value": 2, "price": 16 },
        { "symbol": "option_t_4", "value": 4, "price": 24 },
        { "symbol": "option_t_6", "value": 6, "price": 32 }
      ],

      "car_sharing": [
        { "symbol": "option_0", "value": 0 },
        { "symbol": "option_1", "value": 1, "price": 13 },
        { "symbol": "option_3", "value": 3, "price": 23 },
        { "symbol": "option_5", "value": 5, "price": 33 },
        { "symbol": "option_8", "value": 8, "price": 48 },
        { "symbol": "option_12", "value": 12, "price": 56 },
        { "symbol": "option_16", "value": 16, "price": 65 }
      ],

      "airport_transfer": [
        { "symbol": "option_0", "value": 0 },
        { "symbol": "option_1", "value": 1, "price": 8 },
        { "symbol": "option_2", "value": 2, "price": 40 }
      ],

      "hotel_transfer": [
        { "symbol": "option_0", "value": 0 },
        { "symbol": "option_1", "value": 1, "price": 4 },
        { "symbol": "option_2", "value": 2, "price": 16 }
      ],

      "manchester_card": [
        { "symbol": "option_0", "value": 0 },
        { "symbol": "option_2", "value": 1, "price": 30 },
        { "symbol": "option_3", "value": 2, "price": 50 }
      ],

      "multipliers": [
        0.8, 0.85, 0.88, 0.95, 1, 1.05, 1.12, 1.15, 1.2, 1.25, 1.3
      ],

      "frequency_label": "for a week"
    }
  }
}